// Jest Snapshot v1, https://goo.gl/fbAQLP

exports[`TrialStatusPopover component matches the snapshot 1`] = `
<gl-popover-stub
  boundary="viewport"
  cssclasses=""
  delay="[object Object]"
  placement="rightbottom"
  target="target-element-identifier"
  triggers="hover focus"
>
   
  <gl-sprintf-stub
    message="Your trial ends on %{boldStart}%{trialEndDate}%{boldEnd}. We hope you are enjoying GitLab %{planName}. To continue using GitLab %{planName} after your trial ends, you will need to buy a subscription. You can also choose GitLab Premium if its features are sufficient for your needs."
  />
   
  <div
    class="gl-mt-5"
  >
    <gl-button-stub
      block=""
      buttontextclasses=""
      category="primary"
      class="gl-mb-0"
      data-testid="upgradeBtn"
      data-track-event="click_button"
      data-track-label="upgrade_to_ultimate"
      data-track-property="experiment:show_trial_status_in_sidebar"
      href="transactions/new"
      icon=""
      size="small"
      variant="confirm"
    >
      <span
        class="gl-font-sm"
      >
        <gl-sprintf-stub
          message="Upgrade %{groupName} to %{planName}"
        />
      </span>
    </gl-button-stub>
     
    <gl-button-stub
      block=""
      buttontextclasses=""
      category="secondary"
      class="gl-mb-0"
      data-testid="compareBtn"
      data-track-event="click_button"
      data-track-label="compare_all_plans"
      data-track-property="experiment:show_trial_status_in_sidebar"
      href="billing/path-for/group"
      icon=""
      size="small"
      title="Compare all plans"
      variant="confirm"
    >
      <span
        class="gl-font-sm"
      >
        Compare all plans
      </span>
    </gl-button-stub>
  </div>
</gl-popover-stub>
`;
